{
    "$schema": "http://json-schema.org/draft-04/schema#",
    "title": "PARAMS: pipeliner.select.random_sample",
    "description": "Take a random sampling of a specified size from a starfile",
    "type": "object",
    "properties": {
        "fn_movs": {
            "description": "Sample from movies file",
            "type": "string"
        },
        "fn_mics": {
            "description": "OR: Sample from micrographs file",
            "type": "string"
        },
        "fn_parts": {
            "description": "OR: Sample from particles file",
            "type": "string"
        },
        "fn_coord_files": {
            "description": "OR: Sample coordinate files from a list",
            "type": "string"
        },
        "fn_coords": {
            "description": "OR: Sample points from a coordinates file",
            "type": "string"
        },
        "n_samples": {
            "description": "Number of samples:",
            "type": "integer"
        }
    }
}