{
    "$schema": "http://json-schema.org/draft-04/schema#",
    "title": "PARAMS: relion.polish.train",
    "description": "Produce a set of optimized parameters for relion particle polishing",
    "type": "object",
    "properties": {
        "fn_mic": {
            "description": "Micrographs (from MotionCorr):",
            "type": "string"
        },
        "fn_data": {
            "description": "Particles (from Refine3D or CtfRefine):",
            "type": "string"
        },
        "fn_post": {
            "description": "Postprocess STAR file:",
            "type": "string"
        },
        "first_frame": {
            "description": "First movie frame:",
            "type": "integer"
        },
        "last_frame": {
            "description": "Last movie frame:",
            "type": "integer"
        },
        "optim_min_part": {
            "description": "Use this many particles:",
            "type": "integer"
        },
        "eval_frac": {
            "description": "Fraction of Fourier pixels for testing:",
            "type": "number"
        },
        "sigma_acc": {
            "description": "Sigma for acceleration (A/dose):",
            "type": "number"
        },
        "nr_mpi": {
            "description": "Number of MPI procs:",
            "type": "integer"
        },
        "nr_threads": {
            "description": "Number of threads:",
            "type": "integer"
        },
        "do_queue": {
            "description": "Submit to queue?",
            "type": "boolean"
        },
        "queuename": {
            "description": "Queue name:",
            "type": "string"
        },
        "qsub": {
            "description": "Queue submit command:",
            "type": "string"
        },
        "qsubscript": {
            "description": "Standard submission script:",
            "type": "string"
        },
        "min_dedicated": {
            "description": "Minimum dedicated cores per node:",
            "type": "integer"
        },
        "other_args": {
            "description": "Additional arguments:",
            "type": "string"
        },
        "extract_size": {
            "description": "Extraction size (pix in unbinned movie):",
            "type": "integer"
        },
        "rescale": {
            "description": "Re-scaled size (pixels):",
            "type": "integer"
        },
        "mpi_command": {
            "description": "MPI run command:",
            "type": "string"
        }
    }
}