{
    "$schema": "http://json-schema.org/draft-04/schema#",
    "title": "PARAMS: acedrg.create_ligand",
    "description": "Create ligand dictionary",
    "type": "object",
    "properties": {
        "smiles_string": {
            "description": "SMILES string",
            "type": "string"
        },
        "smiles_file": {
            "description": "OR: SMILES file",
            "type": "string"
        },
        "mol_file": {
            "description": "OR: MOL file",
            "type": "string"
        },
        "mmcif_file": {
            "description": "OR: mmCIF file",
            "type": "string"
        },
        "monomer_code": {
            "description": "Monomer Code",
            "type": "string"
        },
        "do_queue": {
            "description": "Submit to queue?",
            "type": "boolean"
        },
        "queuename": {
            "description": "Queue name:",
            "type": "string"
        },
        "qsub": {
            "description": "Queue submit command:",
            "type": "string"
        },
        "qsubscript": {
            "description": "Standard submission script:",
            "type": "string"
        },
        "min_dedicated": {
            "description": "Minimum dedicated cores per node:",
            "type": "integer"
        }
    }
}