{
    "$schema": "http://json-schema.org/draft-04/schema#",
    "title": "PARAMS: pipeliner.deposition.empiar",
    "description": "Prepare a deposition for EMPIAR",
    "type": "object",
    "properties": {
        "input_job": {
            "description": "Job to create deposition from:",
            "type": "string"
        },
        "dep_raw_mics": {
            "description": "Deposit raw micrographs (if available)?",
            "type": "boolean"
        },
        "dep_corr_mics": {
            "description": "Deposit corrected micrographs (if available)?",
            "type": "boolean"
        },
        "dep_parts": {
            "description": "Deposit particles (if available)?",
            "type": "boolean"
        },
        "dep_corr_parts": {
            "description": "Deposit polished particles (if available)?",
            "type": "boolean"
        },
        "empiar_token": {
            "description": "EMPIAR API token or username",
            "type": "string"
        },
        "empiar_transfer_password": {
            "description": "EMPIAR transfer password",
            "type": "string"
        },
        "entry_title": {
            "description": "Entry title",
            "type": "string"
        },
        "thumbnail_file": {
            "description": "Thumbnail image",
            "type": "string"
        },
        "release_status": {
            "description": "Release options",
            "type": "string"
        },
        "emdb_ref": {
            "description": "EMDB reference: EMD-",
            "type": "string"
        },
        "empiar_ref": {
            "description": "Related EMPIAR entries: EMPIAR-",
            "type": "string"
        },
        "entry_authors": {
            "description": "Entry authors (Surname, Initials, optional:ORCID ID )",
            "type": "string"
        },
        "upload_entry_author_file": {
            "description": "OR: upload entry authors in a csv file:",
            "type": "string"
        },
        "ca_surname": {
            "description": "Corresponding author surname",
            "type": "string"
        },
        "ca_first_name": {
            "description": "Corresponding author first name",
            "type": "string"
        },
        "ca_middle_name": {
            "description": "Corresponding author middle name",
            "type": "string"
        },
        "ca_orcid": {
            "description": "Corresponding author orcid ID:",
            "type": "string"
        },
        "ca_org": {
            "description": "Corresponding author organisation:",
            "type": "string"
        },
        "ca_email": {
            "description": "Corresponding author email:",
            "type": "string"
        },
        "ca_address": {
            "description": "Corresponding author street address:",
            "type": "string"
        },
        "ca_city": {
            "description": "Corresponding author city:",
            "type": "string"
        },
        "ca_state": {
            "description": "Corresponding author state/province:",
            "type": "string"
        },
        "ca_postcode": {
            "description": "Corresponding author post code:",
            "type": "string"
        },
        "ca_country": {
            "description": "Corresponding author country:",
            "type": "string"
        },
        "ca_tel": {
            "description": "Corresponding author telephone:",
            "type": "string"
        },
        "pi_surname": {
            "description": "Principal investigator surname",
            "type": "string"
        },
        "pi_first_name": {
            "description": "Principal investigator first name",
            "type": "string"
        },
        "pi_middle_name": {
            "description": "Principal investigator middle name",
            "type": "string"
        },
        "pi_orcid": {
            "description": "Principal investigator orcid ID:",
            "type": "string"
        },
        "pi_org": {
            "description": "Principal investigator organisation:",
            "type": "string"
        },
        "pi_email": {
            "description": "Principal investigator email:",
            "type": "string"
        },
        "pi_address": {
            "description": "Principal investigator street address:",
            "type": "string"
        },
        "pi_city": {
            "description": "Principal investigator city:",
            "type": "string"
        },
        "pi_state": {
            "description": "Principal investigator state/province:",
            "type": "string"
        },
        "pi_postcode": {
            "description": "Principal investigator post code:",
            "type": "string"
        },
        "pi_country": {
            "description": "Principal investigator country:",
            "type": "string"
        },
        "pi_tel": {
            "description": "Principal investigator telephone:",
            "type": "string"
        },
        "citation_file": {
            "description": "Upload JSON file containing citation info",
            "type": "string"
        },
        "citation_authors": {
            "description": "Citation authors (Surname, Initials, optional:ORCID ID )",
            "type": "string"
        },
        "editors": {
            "description": "Editors: surname, initials",
            "type": "string"
        },
        "published": {
            "description": "Has the citation been published?",
            "type": "boolean"
        },
        "j_or_nj_citation": {
            "description": "Is the citation in an academic journal?",
            "type": "boolean"
        },
        "citation_title": {
            "description": "Citation title",
            "type": "string"
        },
        "year": {
            "description": "Year of publication",
            "type": "string"
        },
        "journal": {
            "description": "Journal",
            "type": "string"
        },
        "journal_abbrev": {
            "description": "Journal Abbreviation",
            "type": "string"
        },
        "volume": {
            "description": "Volume",
            "type": "string"
        },
        "issue": {
            "description": "Issue",
            "type": "string"
        },
        "first_page": {
            "description": "First page",
            "type": "string"
        },
        "last_page": {
            "description": "Last page",
            "type": "string"
        },
        "doi": {
            "description": "doi",
            "type": "string"
        },
        "pubmedid": {
            "description": "PubMed ID",
            "type": "string"
        },
        "details": {
            "description": "Publication details",
            "type": "string"
        },
        "book_chapter_title": {
            "description": "Book chapter and title",
            "type": "string"
        },
        "publisher": {
            "description": "Publisher",
            "type": "string"
        },
        "pub_location": {
            "description": "Publication location",
            "type": "string"
        },
        "cite_country": {
            "description": "Publication country",
            "type": "string"
        },
        "language": {
            "description": "Publication Language",
            "type": "string"
        }
    }
}