{
    "$schema": "http://json-schema.org/draft-04/schema#",
    "title": "PARAMS: relion.maskcreate",
    "description": "Create a 3-dimensional mask",
    "type": "object",
    "properties": {
        "fn_in": {
            "description": "Input 3D map",
            "type": "string"
        },
        "lowpass_filter": {
            "description": "Lowpass filter map (A)",
            "type": "number"
        },
        "angpix": {
            "description": "Pixel size (A)",
            "type": "number"
        },
        "inimask_threshold": {
            "description": "Initial binarisation threshold",
            "type": "number"
        },
        "extend_inimask": {
            "description": "Extend binary map this many pixels:",
            "type": "integer"
        },
        "width_mask_edge": {
            "description": "Add a soft-edge of this many pixels:",
            "type": "integer"
        },
        "do_helix": {
            "description": "Mask a 3D helix?",
            "type": "boolean"
        },
        "helical_z_percentage": {
            "description": "Central Z length (%):",
            "type": "number"
        },
        "nr_threads": {
            "description": "Number of threads:",
            "type": "integer"
        },
        "do_queue": {
            "description": "Submit to queue?",
            "type": "boolean"
        },
        "queuename": {
            "description": "Queue name:",
            "type": "string"
        },
        "qsub": {
            "description": "Queue submit command:",
            "type": "string"
        },
        "qsubscript": {
            "description": "Standard submission script:",
            "type": "string"
        },
        "min_dedicated": {
            "description": "Minimum dedicated cores per node:",
            "type": "integer"
        },
        "other_args": {
            "description": "Additional arguments:",
            "type": "string"
        }
    }
}