{
    "$schema": "http://json-schema.org/draft-04/schema#",
    "title": "PARAMS: relion.import.coordinates",
    "description": "Import coordinate files in .box or .star format",
    "type": "object",
    "properties": {
        "coords_search_string": {
            "description": "Raw coordinates files search string:",
            "type": "string"
        },
        "micrographs_starfile": {
            "description": "Associated micrographs starfile",
            "type": "string"
        }
    }
}