{
    "$schema": "http://json-schema.org/draft-04/schema#",
    "title": "ccpem_utils.map_utilities.shift_origin_nstart",
    "description": "Edit map origin or nstart header records",
    "type": "object",
    "properties": {
        "run parameters": {
            "description": "Complete parameters used for running the job",
            "$ref": "parameters/params_ccpem_utils_map_utilities_shift_origin_nstart.json"
        },
        "results": {
            "description": "Data on the results of the job",
            "$ref": "results/results_ccpem_utils_map_utilities_shift_origin_nstart.json"
        }
    }
}