{
    "$schema": "http://json-schema.org/draft-04/schema#",
    "title": "pipeliner.deposition.empiar",
    "description": "Prepare a deposition for EMPIAR",
    "type": "object",
    "properties": {
        "run parameters": {
            "description": "Complete parameters used for running the job",
            "$ref": "parameters/params_pipeliner_deposition_empiar.json"
        },
        "results": {
            "description": "Data on the results of the job",
            "$ref": "results/results_pipeliner_deposition_empiar.json"
        }
    }
}