{
    "$schema": "http://json-schema.org/draft-04/schema#",
    "title": "relion.map_utilities.rebox_rescale_map",
    "description": "Modify the box size of a map and change the pixel size if desired",
    "type": "object",
    "properties": {
        "run parameters": {
            "description": "Complete parameters used for running the job",
            "$ref": "parameters/params_relion_map_utilities_rebox_rescale_map.json"
        },
        "results": {
            "description": "Data on the results of the job",
            "$ref": "results/results_relion_map_utilities_rebox_rescale_map.json"
        }
    }
}