{
    "$schema": "http://json-schema.org/draft-04/schema#",
    "title": "relion.maskcreate",
    "description": "Create a 3-dimensional mask",
    "type": "object",
    "properties": {
        "run parameters": {
            "description": "Complete parameters used for running the job",
            "$ref": "parameters/params_relion_maskcreate.json"
        },
        "results": {
            "description": "Data on the results of the job",
            "$ref": "results/results_relion_maskcreate.json"
        }
    }
}