{
    "$schema": "http://json-schema.org/draft-04/schema#",
    "title": "slicendice.atomic_model_split",
    "description": "Slice model into sub-domains ",
    "type": "object",
    "properties": {
        "run parameters": {
            "description": "Complete parameters used for running the job",
            "$ref": "parameters/params_slicendice_atomic_model_split.json"
        },
        "results": {
            "description": "Data on the results of the job",
            "$ref": "results/results_slicendice_atomic_model_split.json"
        }
    }
}