{
    "$schema": "http://json-schema.org/draft-04/schema#",
    "title": "PARMS: pipeliner.workflow.import_external",
    "description": "Import results from outside the pipeliner",
    "type": "object",
    "properties": {
        "InputNodesCreated": {
            "description": "New input nodes that were imported:",
            "type": "object"
        },
        "OutputNodesCreated": {
              "description": "New output nodes that were imported:",
              "type": "object"
        },
        "ExternalProcessingDescription":{
              "description": "Externally performed workflow",
              "type": "object"
        }
    }
}