{
    "$schema": "http://json-schema.org/draft-04/schema#",
    "title": "RESULTS: cryodrgn.train_vae",
    "description": "CryoDRGN heterogeneous reconstruction",
    "type": "object",
    "properties": null
}