{
    "$schema": "http://json-schema.org/draft-04/schema#",
    "title": "RESULTS: icebreaker.micrograph_analysis.micrographs",
    "description": "Assign ice thickness values to micrographs",
    "type": "object",
    "properties": null
}