{
    "$schema": "http://json-schema.org/draft-04/schema#",
    "title": "RESULTS: ccpem_utils.map_utilities.shift_origin_nstart",
    "description": "Edit map origin or nstart header records",
    "type": "object",
    "properties": null
}