{
    "$schema": "http://json-schema.org/draft-04/schema#",
    "title": "RESULTS: pipeliner.select.random_sample",
    "description": "Take a random sampling of a specified size from a starfile",
    "type": "object",
    "properties": null
}