{
    "$schema": "http://json-schema.org/draft-04/schema#",
    "title": "RESULTS: relion.localres.own",
    "description": "Calculate local resolution using RELION",
    "type": "object",
    "properties": null
}