{
    "$schema": "http://json-schema.org/draft-04/schema#",
    "title": "RESULTS: pipeliner.run_external_program",
    "description": "Run a program that is not part of doppio",
    "type": "object",
    "properties": null
}