{
    "$schema": "http://json-schema.org/draft-04/schema#",
    "title": "RESULTS: modelangelo",
    "description": "Automated atomic model building with ModelAngelo",
    "type": "object",
    "properties": null
}